EESchema Schematic File Version 4
LIBS:usbasp-cache
EELAYER 26 0
EELAYER END
$Descr USLetter 11000 8500
encoding utf-8
Sheet 1 1
Title "USBASP"
Date ""
Rev "A"
Comp ""
Comment1 "Author: Thomas Fischl"
Comment2 "https://www.fischl.de/usbasp/"
Comment3 "Drawn by lumostor@3x0.ca"
Comment4 ""
$EndDescr
$Comp
L Connector:USB_B_Micro J1
U 1 1 5B4AB0DE
P 1275 2650
F 0 "J1" H 1100 3000 50  0000 C CNN
F 1 "USB_B_Micro" V 1025 2625 50  0000 C CNN
F 2 "Connector_USB:USB_Micro-B_Molex_47346-0001" H 1425 2600 50  0001 C CNN
F 3 "~" H 1425 2600 50  0001 C CNN
	1    1275 2650
	1    0    0    -1  
$EndComp
$Comp
L MCU_Microchip_ATmega:ATmega88PA-AU U1
U 1 1 5B4AEC1C
P 3175 5625
F 0 "U1" H 2725 7075 50  0000 C CNN
F 1 "ATmega88PA-AU" H 3575 4175 50  0000 C CNN
F 2 "Package_QFP:TQFP-32_7x7mm_P0.8mm" H 3175 5625 50  0001 C CIN
F 3 "http://ww1.microchip.com/downloads/en/DeviceDoc/atmel-8271-8-bit-avr-microcontroller-atmega48a-48pa-88a-88pa-168a-168pa-328-328p_datasheet.pdf" H 3175 5625 50  0001 C CNN
	1    3175 5625
	1    0    0    -1  
$EndComp
$Comp
L Device:Crystal_Small Y1
U 1 1 5B4AEDC8
P 5925 5725
F 0 "Y1" H 5925 5498 50  0000 C CNN
F 1 "12MHz" H 5925 5590 50  0000 C CNN
F 2 "Crystal:Crystal_SMD_SeikoEpson_FA238-4Pin_3.2x2.5mm_HandSoldering" H 5925 5725 50  0001 C CNN
F 3 "~" H 5925 5725 50  0001 C CNN
	1    5925 5725
	-1   0    0    1   
$EndComp
$Comp
L Device:C_Small C5
U 1 1 5B4AEF39
P 6075 5975
F 0 "C5" H 5983 5929 50  0000 R CNN
F 1 "22p" H 5983 6021 50  0000 R CNN
F 2 "Capacitor_SMD:C_0805_2012Metric" H 6075 5975 50  0001 C CNN
F 3 "~" H 6075 5975 50  0001 C CNN
	1    6075 5975
	-1   0    0    1   
$EndComp
$Comp
L Device:C_Small C4
U 1 1 5B4AF022
P 5775 5975
F 0 "C4" H 5950 5925 50  0000 R CNN
F 1 "22p" H 6050 6025 50  0000 R CNN
F 2 "Capacitor_SMD:C_0805_2012Metric" H 5775 5975 50  0001 C CNN
F 3 "~" H 5775 5975 50  0001 C CNN
	1    5775 5975
	-1   0    0    1   
$EndComp
Wire Wire Line
	6075 5875 6075 5725
Wire Wire Line
	6075 5725 6025 5725
Wire Wire Line
	5825 5725 5775 5725
Wire Wire Line
	5775 5725 5775 5875
Wire Wire Line
	5775 6075 5775 6125
Wire Wire Line
	5775 6125 5925 6125
Wire Wire Line
	6075 6125 6075 6075
Wire Wire Line
	5925 6125 5925 6175
Connection ~ 5925 6125
Wire Wire Line
	5925 6125 6075 6125
$Comp
L power:GND #PWR0101
U 1 1 5B4AFEA1
P 5925 6175
F 0 "#PWR0101" H 5925 5925 50  0001 C CNN
F 1 "GND" H 5929 6001 50  0000 C CNN
F 2 "" H 5925 6175 50  0001 C CNN
F 3 "" H 5925 6175 50  0001 C CNN
	1    5925 6175
	1    0    0    -1  
$EndComp
Text Label 5550 5725 0    50   ~ 0
XTAL1
Text Label 6325 5725 2    50   ~ 0
XTAL2
Wire Wire Line
	5775 5725 5550 5725
Connection ~ 5775 5725
Wire Wire Line
	6075 5725 6325 5725
Connection ~ 6075 5725
Wire Wire Line
	3775 5125 4075 5125
Wire Wire Line
	3775 5025 4075 5025
Text Label 4075 5025 2    50   ~ 0
XTAL1
Text Label 4075 5125 2    50   ~ 0
XTAL2
Wire Wire Line
	3275 4125 3275 4075
Wire Wire Line
	3275 4075 3225 4075
Wire Wire Line
	3175 4075 3175 4125
Wire Wire Line
	3225 4075 3225 3975
Connection ~ 3225 4075
Wire Wire Line
	3225 4075 3175 4075
$Comp
L power:VCC #PWR0102
U 1 1 5B4B06DF
P 3225 3975
F 0 "#PWR0102" H 3225 3825 50  0001 C CNN
F 1 "VCC" H 3242 4150 50  0000 C CNN
F 2 "" H 3225 3975 50  0001 C CNN
F 3 "" H 3225 3975 50  0001 C CNN
	1    3225 3975
	1    0    0    -1  
$EndComp
$Comp
L Device:R_Small R7
U 1 1 5B4B07E0
P 6675 5925
F 0 "R7" H 6734 5971 50  0000 L CNN
F 1 "10k" H 6734 5879 50  0000 L CNN
F 2 "Resistor_SMD:R_0805_2012Metric_Pad1.15x1.40mm_HandSolder" H 6675 5925 50  0001 C CNN
F 3 "~" H 6675 5925 50  0001 C CNN
	1    6675 5925
	1    0    0    -1  
$EndComp
$Comp
L power:VCC #PWR0103
U 1 1 5B4B0CE2
P 6675 5725
F 0 "#PWR0103" H 6675 5575 50  0001 C CNN
F 1 "VCC" H 6692 5900 50  0000 C CNN
F 2 "" H 6675 5725 50  0001 C CNN
F 3 "" H 6675 5725 50  0001 C CNN
	1    6675 5725
	1    0    0    -1  
$EndComp
Wire Wire Line
	6675 5725 6675 5825
Wire Wire Line
	6675 6025 6675 6175
Wire Wire Line
	6675 6175 7000 6175
Text Label 7000 6175 2    50   ~ 0
RESET
Text Label 4075 5925 2    50   ~ 0
RESET
Wire Wire Line
	4075 5925 3775 5925
$Comp
L Device:LED_Small D3
U 1 1 5B4B2192
P 5625 2325
F 0 "D3" H 5600 2425 50  0000 C CNN
F 1 "RED" H 5750 2375 50  0000 C CNN
F 2 "Diode_SMD:D_0805_2012Metric_Pad0.98x1.40mm_HandSolder" V 5625 2325 50  0001 C CNN
F 3 "~" V 5625 2325 50  0001 C CNN
	1    5625 2325
	0    -1   -1   0   
$EndComp
$Comp
L Device:LED_Small D4
U 1 1 5B4B2295
P 5725 2325
F 0 "D4" H 5700 2250 50  0000 C CNN
F 1 "GREEN" H 5875 2275 50  0000 C CNN
F 2 "Diode_SMD:D_0805_2012Metric_Pad0.98x1.40mm_HandSolder" V 5725 2325 50  0001 C CNN
F 3 "~" V 5725 2325 50  0001 C CNN
	1    5725 2325
	0    -1   -1   0   
$EndComp
Wire Wire Line
	5725 2425 5725 2900
Wire Wire Line
	5625 2900 5625 2425
$Comp
L Device:R_Small R6
U 1 1 5B4B2915
P 5625 1925
F 0 "R6" V 5550 1925 50  0000 C CNN
F 1 "1k" V 5625 1925 50  0000 C CNN
F 2 "Resistor_SMD:R_0805_2012Metric_Pad1.15x1.40mm_HandSolder" H 5625 1925 50  0001 C CNN
F 3 "~" H 5625 1925 50  0001 C CNN
	1    5625 1925
	1    0    0    -1  
$EndComp
$Comp
L Device:R_Small R8
U 1 1 5B4B29A9
P 5725 1925
F 0 "R8" V 5800 1925 50  0000 C CNN
F 1 "1k" V 5725 1925 50  0000 C CNN
F 2 "Resistor_SMD:R_0805_2012Metric_Pad1.15x1.40mm_HandSolder" H 5725 1925 50  0001 C CNN
F 3 "~" H 5725 1925 50  0001 C CNN
	1    5725 1925
	1    0    0    -1  
$EndComp
Wire Wire Line
	5725 2025 5725 2225
Wire Wire Line
	5625 2225 5625 2025
Wire Wire Line
	5625 1825 5625 1750
Wire Wire Line
	5625 1750 5675 1750
Wire Wire Line
	5725 1750 5725 1825
$Comp
L power:VCC #PWR0104
U 1 1 5B4B350A
P 5675 1725
F 0 "#PWR0104" H 5675 1575 50  0001 C CNN
F 1 "VCC" V 5692 1853 50  0000 L CNN
F 2 "" H 5675 1725 50  0001 C CNN
F 3 "" H 5675 1725 50  0001 C CNN
	1    5675 1725
	1    0    0    -1  
$EndComp
Wire Wire Line
	5675 1725 5675 1750
Connection ~ 5675 1750
Wire Wire Line
	5675 1750 5725 1750
$Comp
L Device:D_Zener_Small D1
U 1 1 5B4B3E17
P 2875 2900
F 0 "D1" V 2850 2750 50  0000 L CNN
F 1 "3V6" V 2950 2750 50  0000 L CNN
F 2 "Diode_SMD:D_SOD-123" V 2875 2900 50  0001 C CNN
F 3 "~" V 2875 2900 50  0001 C CNN
	1    2875 2900
	0    1    1    0   
$EndComp
$Comp
L Device:D_Zener_Small D2
U 1 1 5B4B3F7D
P 3075 2900
F 0 "D2" V 3029 2969 50  0000 L CNN
F 1 "3V6" V 3121 2969 50  0000 L CNN
F 2 "Diode_SMD:D_SOD-123" V 3075 2900 50  0001 C CNN
F 3 "~" V 3075 2900 50  0001 C CNN
	1    3075 2900
	0    1    1    0   
$EndComp
Wire Wire Line
	1575 2750 2875 2750
Wire Wire Line
	1575 2650 3075 2650
Wire Wire Line
	2875 2800 2875 2750
Connection ~ 2875 2750
Wire Wire Line
	2875 2750 3475 2750
Wire Wire Line
	3075 2800 3075 2650
Connection ~ 3075 2650
Wire Wire Line
	3075 2650 3675 2650
Wire Wire Line
	3075 3000 3075 3050
Wire Wire Line
	3075 3050 2975 3050
Wire Wire Line
	2875 3050 2875 3000
Connection ~ 2975 3050
Wire Wire Line
	2975 3050 2875 3050
Wire Wire Line
	2975 3050 2975 3100
$Comp
L power:GND #PWR0105
U 1 1 5B4B6FD7
P 2975 3100
F 0 "#PWR0105" H 2975 2850 50  0001 C CNN
F 1 "GND" H 2979 2926 50  0000 C CNN
F 2 "" H 2975 3100 50  0001 C CNN
F 3 "" H 2975 3100 50  0001 C CNN
	1    2975 3100
	1    0    0    -1  
$EndComp
$Comp
L Device:R R3
U 1 1 5B4B7065
P 3825 2650
F 0 "R3" V 3750 2650 50  0000 C CNN
F 1 "68" V 3825 2650 50  0000 C CNN
F 2 "Resistor_SMD:R_0805_2012Metric_Pad1.15x1.40mm_HandSolder" H 3825 2650 50  0001 C CNN
F 3 "~" H 3825 2650 50  0001 C CNN
	1    3825 2650
	0    1    1    0   
$EndComp
Text Label 4325 2650 2    50   ~ 0
D+
Text Label 4325 2750 2    50   ~ 0
D-
$Comp
L Device:R R2
U 1 1 5B4B862E
P 3475 2425
F 0 "R2" V 3375 2425 50  0000 C CNN
F 1 "2k2" V 3475 2425 50  0000 C CNN
F 2 "Resistor_SMD:R_0805_2012Metric_Pad1.15x1.40mm_HandSolder" H 3475 2425 50  0001 C CNN
F 3 "~" H 3475 2425 50  0001 C CNN
	1    3475 2425
	-1   0    0    1   
$EndComp
Wire Wire Line
	3475 2750 3475 2575
Connection ~ 3475 2750
Wire Wire Line
	3475 2750 3675 2750
$Comp
L power:VCC #PWR0106
U 1 1 5B4B9BF3
P 3475 2125
F 0 "#PWR0106" H 3475 1975 50  0001 C CNN
F 1 "VCC" H 3492 2300 50  0000 C CNN
F 2 "" H 3475 2125 50  0001 C CNN
F 3 "" H 3475 2125 50  0001 C CNN
	1    3475 2125
	1    0    0    -1  
$EndComp
Text Label 3300 4425 2    50   ~ 0
D-
Text Label 4075 4525 2    50   ~ 0
D+
Wire Wire Line
	4075 4525 3775 4525
Wire Wire Line
	3000 4425 3300 4425
Wire Wire Line
	3775 6325 4075 6325
Text Label 4075 6325 2    50   ~ 0
D+
$Comp
L Device:Ferrite_Bead_Small L1
U 1 1 5B4BC4ED
P 2375 1925
F 0 "L1" V 2136 1925 50  0000 C CNN
F 1 "33Ω 500mA" V 2228 1925 50  0000 C CNN
F 2 "Inductor_SMD:L_0603_1608Metric_Pad1.05x0.95mm_HandSolder" V 2305 1925 50  0001 C CNN
F 3 "~" H 2375 1925 50  0001 C CNN
F 4 "BLM18SG330SN1D" V 2375 1925 50  0001 C CNN "Mfg"
	1    2375 1925
	0    1    1    0   
$EndComp
Wire Wire Line
	1700 1925 2025 1925
$Comp
L power:VCC #PWR0107
U 1 1 5B4BE103
P 3075 1725
F 0 "#PWR0107" H 3075 1575 50  0001 C CNN
F 1 "VCC" H 3092 1900 50  0000 C CNN
F 2 "" H 3075 1725 50  0001 C CNN
F 3 "" H 3075 1725 50  0001 C CNN
	1    3075 1725
	1    0    0    -1  
$EndComp
Wire Wire Line
	2475 1925 2675 1925
Wire Wire Line
	3075 1925 3075 1725
$Comp
L Device:C_Small C2
U 1 1 5B4C2129
P 2675 2125
F 0 "C2" H 2767 2171 50  0000 L CNN
F 1 "100n" H 2767 2079 50  0000 L CNN
F 2 "Capacitor_SMD:C_0805_2012Metric" H 2675 2125 50  0001 C CNN
F 3 "~" H 2675 2125 50  0001 C CNN
	1    2675 2125
	1    0    0    -1  
$EndComp
$Comp
L Device:CP_Small C3
U 1 1 5B4C227D
P 3075 2125
F 0 "C3" H 3164 2171 50  0000 L CNN
F 1 "4u7" H 3164 2079 50  0000 L CNN
F 2 "Capacitor_SMD:C_0805_2012Metric" H 3075 2125 50  0001 C CNN
F 3 "~" H 3075 2125 50  0001 C CNN
	1    3075 2125
	1    0    0    -1  
$EndComp
$Comp
L Device:C_Small C1
U 1 1 5B4C531B
P 2025 2125
F 0 "C1" H 2117 2171 50  0000 L CNN
F 1 "10n" H 2117 2079 50  0000 L CNN
F 2 "Capacitor_SMD:C_0805_2012Metric" H 2025 2125 50  0001 C CNN
F 3 "~" H 2025 2125 50  0001 C CNN
	1    2025 2125
	1    0    0    -1  
$EndComp
Wire Wire Line
	3075 1925 3075 2025
Connection ~ 3075 1925
Wire Wire Line
	2675 2025 2675 1925
Connection ~ 2675 1925
Wire Wire Line
	2675 1925 3075 1925
Wire Wire Line
	2025 2025 2025 1925
Connection ~ 2025 1925
Wire Wire Line
	2025 1925 2275 1925
Wire Wire Line
	2675 2225 2675 2275
Wire Wire Line
	2675 2275 3075 2275
Wire Wire Line
	3075 2275 3075 2225
Wire Wire Line
	2675 2275 2600 2275
Wire Wire Line
	2025 2275 2025 2225
Connection ~ 2675 2275
$Comp
L power:GND #PWR0108
U 1 1 5B4CBA16
P 2600 2300
F 0 "#PWR0108" H 2600 2050 50  0001 C CNN
F 1 "GND" H 2604 2126 50  0000 C CNN
F 2 "" H 2600 2300 50  0001 C CNN
F 3 "" H 2600 2300 50  0001 C CNN
	1    2600 2300
	1    0    0    -1  
$EndComp
Wire Wire Line
	2600 2300 2600 2275
Connection ~ 2600 2275
Wire Wire Line
	2600 2275 2025 2275
Wire Wire Line
	1700 1925 1700 2450
Wire Wire Line
	1700 2450 1575 2450
$Comp
L Device:R R1
U 1 1 5B4D9F4D
P 1175 3275
F 0 "R1" H 1025 3275 50  0000 L CNN
F 1 "1M" V 1175 3225 50  0000 L CNN
F 2 "Resistor_SMD:R_0805_2012Metric_Pad1.15x1.40mm_HandSolder" H 1175 3275 50  0001 C CNN
F 3 "~" H 1175 3275 50  0001 C CNN
	1    1175 3275
	1    0    0    -1  
$EndComp
Wire Wire Line
	1175 3050 1175 3125
Wire Wire Line
	1175 3425 1175 3450
Wire Wire Line
	1175 3450 1225 3450
Wire Wire Line
	1275 3450 1275 3125
Wire Wire Line
	1275 3125 1625 3125
Wire Wire Line
	1625 3125 1625 2850
Wire Wire Line
	1625 2850 1575 2850
Connection ~ 1275 3125
Wire Wire Line
	1275 3125 1275 3050
Wire Wire Line
	3475 2275 3475 2125
Wire Wire Line
	3975 2650 4325 2650
$Comp
L Device:R R4
U 1 1 5B4EEA45
P 3825 2750
F 0 "R4" V 3900 2750 50  0000 C CNN
F 1 "68" V 3825 2750 50  0000 C CNN
F 2 "Resistor_SMD:R_0805_2012Metric_Pad1.15x1.40mm_HandSolder" H 3825 2750 50  0001 C CNN
F 3 "~" H 3825 2750 50  0001 C CNN
	1    3825 2750
	0    1    1    0   
$EndComp
Wire Wire Line
	3975 2750 4325 2750
$Comp
L power:GND #PWR0109
U 1 1 5B4F0C17
P 1225 3450
F 0 "#PWR0109" H 1225 3200 50  0001 C CNN
F 1 "GND" H 1229 3276 50  0000 C CNN
F 2 "" H 1225 3450 50  0001 C CNN
F 3 "" H 1225 3450 50  0001 C CNN
	1    1225 3450
	1    0    0    -1  
$EndComp
Connection ~ 1225 3450
Wire Wire Line
	1225 3450 1275 3450
$Comp
L Device:C_Small C6
U 1 1 5B4F1354
P 8950 5925
F 0 "C6" H 9042 5971 50  0000 L CNN
F 1 "100n" H 9042 5879 50  0000 L CNN
F 2 "Capacitor_SMD:C_0805_2012Metric" H 8950 5925 50  0001 C CNN
F 3 "~" H 8950 5925 50  0001 C CNN
	1    8950 5925
	1    0    0    -1  
$EndComp
$Comp
L power:VCC #PWR0110
U 1 1 5B4F142C
P 8950 5750
F 0 "#PWR0110" H 8950 5600 50  0001 C CNN
F 1 "VCC" H 8967 5925 50  0000 C CNN
F 2 "" H 8950 5750 50  0001 C CNN
F 3 "" H 8950 5750 50  0001 C CNN
	1    8950 5750
	1    0    0    -1  
$EndComp
$Comp
L power:GND #PWR0111
U 1 1 5B4F1461
P 9675 6125
F 0 "#PWR0111" H 9675 5875 50  0001 C CNN
F 1 "GND" H 9680 5950 50  0000 C CNN
F 2 "" H 9675 6125 50  0001 C CNN
F 3 "" H 9675 6125 50  0001 C CNN
	1    9675 6125
	-1   0    0    1   
$EndComp
Wire Wire Line
	8950 5750 8950 5825
Wire Wire Line
	8950 6025 8950 6125
$Comp
L Jumper:Jumper_2_Open JP2
U 1 1 5B5014BF
P 6875 2200
F 0 "JP2" H 6875 2325 50  0000 C CNN
F 1 "Slow SCK" H 6875 2100 50  0000 C CNN
F 2 "Connector_PinHeader_2.54mm:PinHeader_1x02_P2.54mm_Vertical_SMD_Pin1Right" H 6875 2200 50  0001 C CNN
F 3 "~" H 6875 2200 50  0001 C CNN
	1    6875 2200
	0    1    1    0   
$EndComp
Wire Wire Line
	6875 2000 6875 1850
Wire Wire Line
	6875 2400 6875 2650
$Comp
L power:GND #PWR01
U 1 1 5B505A0A
P 6875 2650
F 0 "#PWR01" H 6875 2400 50  0001 C CNN
F 1 "GND" H 6879 2476 50  0000 C CNN
F 2 "" H 6875 2650 50  0001 C CNN
F 3 "" H 6875 2650 50  0001 C CNN
	1    6875 2650
	1    0    0    -1  
$EndComp
$Comp
L Connector_Generic:Conn_02x05_Odd_Even J2
U 1 1 5B505AEE
P 7900 4400
F 0 "J2" H 7950 4818 50  0000 C CNN
F 1 "Conn_02x05_Odd_Even" H 7950 4726 50  0000 C CNN
F 2 "Connector_PinHeader_2.54mm:PinHeader_2x05_P2.54mm_Vertical_SMD" H 7900 4400 50  0001 C CNN
F 3 "~" H 7900 4400 50  0001 C CNN
	1    7900 4400
	1    0    0    -1  
$EndComp
$Comp
L Jumper:Jumper_2_Open JP3
U 1 1 5B50644D
P 8600 3850
F 0 "JP3" H 8600 3975 50  0000 C CNN
F 1 "Vtarget" H 8600 3750 50  0000 C CNN
F 2 "Connector_PinHeader_2.54mm:PinHeader_1x02_P2.54mm_Vertical_SMD_Pin1Right" H 8600 3850 50  0001 C CNN
F 3 "~" H 8600 3850 50  0001 C CNN
	1    8600 3850
	0    1    1    0   
$EndComp
Wire Wire Line
	8200 4200 8600 4200
Wire Wire Line
	8600 4200 8600 4050
Wire Wire Line
	8600 3650 8600 3450
$Comp
L power:VCC #PWR03
U 1 1 5B50AB92
P 8600 3450
F 0 "#PWR03" H 8600 3300 50  0001 C CNN
F 1 "VCC" H 8617 3625 50  0000 C CNN
F 2 "" H 8600 3450 50  0001 C CNN
F 3 "" H 8600 3450 50  0001 C CNN
	1    8600 3450
	1    0    0    -1  
$EndComp
$Comp
L Device:R R11
U 1 1 5B50ABFD
P 8525 4300
F 0 "R11" V 8450 4300 50  0000 C CNN
F 1 "270" V 8525 4300 50  0000 C CNN
F 2 "Resistor_SMD:R_0805_2012Metric_Pad1.15x1.40mm_HandSolder" H 8525 4300 50  0001 C CNN
F 3 "~" H 8525 4300 50  0001 C CNN
	1    8525 4300
	0    1    1    0   
$EndComp
Wire Wire Line
	8200 4300 8375 4300
Wire Wire Line
	8675 4300 9025 4300
Text Label 9025 4300 2    50   ~ 0
TX0
Wire Wire Line
	8200 4400 9025 4400
Text Label 9025 4400 2    50   ~ 0
RX0
Wire Wire Line
	8200 4500 8300 4500
Wire Wire Line
	8300 4500 8300 4600
Wire Wire Line
	8300 4600 8200 4600
Wire Wire Line
	8300 4600 8300 4650
Connection ~ 8300 4600
$Comp
L power:GND #PWR02
U 1 1 5B516A41
P 8300 4650
F 0 "#PWR02" H 8300 4400 50  0001 C CNN
F 1 "GND" H 8304 4476 50  0000 C CNN
F 2 "" H 8300 4650 50  0001 C CNN
F 3 "" H 8300 4650 50  0001 C CNN
	1    8300 4650
	1    0    0    -1  
$EndComp
Wire Wire Line
	7700 4600 7000 4600
Text Label 7000 4600 0    50   ~ 0
MISO
$Comp
L Device:R R10
U 1 1 5B51932C
P 7450 4500
F 0 "R10" V 7375 4500 50  0000 C CNN
F 1 "270" V 7450 4500 50  0000 C CNN
F 2 "Resistor_SMD:R_0805_2012Metric_Pad1.15x1.40mm_HandSolder" H 7450 4500 50  0001 C CNN
F 3 "~" H 7450 4500 50  0001 C CNN
	1    7450 4500
	0    1    1    0   
$EndComp
Wire Wire Line
	7700 4500 7600 4500
Wire Wire Line
	7300 4500 7000 4500
Text Label 7000 4500 0    50   ~ 0
SCK
$Comp
L Device:R R5
U 1 1 5B51E5B5
P 6675 4400
F 0 "R5" V 6600 4400 50  0000 C CNN
F 1 "270" V 6675 4400 50  0000 C CNN
F 2 "Resistor_SMD:R_0805_2012Metric_Pad1.15x1.40mm_HandSolder" H 6675 4400 50  0001 C CNN
F 3 "~" H 6675 4400 50  0001 C CNN
	1    6675 4400
	0    1    1    0   
$EndComp
Wire Wire Line
	7700 4400 6900 4400
Wire Wire Line
	6525 4400 6175 4400
Text Label 6175 4400 0    50   ~ 0
~SS~
$Comp
L Jumper:Jumper_2_Open JP1
U 1 1 5B523B91
P 6400 4100
F 0 "JP1" H 6400 4225 50  0000 C CNN
F 1 "SelfProg" H 6400 4000 50  0000 C CNN
F 2 "Connector_PinHeader_2.54mm:PinHeader_1x02_P2.54mm_Vertical_SMD_Pin1Right" H 6400 4100 50  0001 C CNN
F 3 "~" H 6400 4100 50  0001 C CNN
	1    6400 4100
	1    0    0    -1  
$EndComp
Wire Wire Line
	6900 4400 6900 4100
Wire Wire Line
	6900 4100 6600 4100
Connection ~ 6900 4400
Wire Wire Line
	6200 4100 5800 4100
Text Label 5800 4100 0    50   ~ 0
RESET
$Comp
L Device:R R9
U 1 1 5B5297C0
P 7450 4200
F 0 "R9" V 7375 4200 50  0000 C CNN
F 1 "270" V 7450 4200 50  0000 C CNN
F 2 "Resistor_SMD:R_0805_2012Metric_Pad1.15x1.40mm_HandSolder" H 7450 4200 50  0001 C CNN
F 3 "~" H 7450 4200 50  0001 C CNN
	1    7450 4200
	0    1    1    0   
$EndComp
Wire Wire Line
	7700 4200 7600 4200
Wire Wire Line
	7300 4200 7000 4200
Text Label 7000 4200 0    50   ~ 0
MOSI
Wire Wire Line
	6825 4400 6900 4400
Wire Wire Line
	6875 1850 6550 1850
Text Label 6550 1850 0    50   ~ 0
SLOWSCK
Text Label 4175 5525 2    50   ~ 0
SLOWSCK
Wire Wire Line
	3775 5525 4175 5525
Text Label 5625 2900 1    50   ~ 0
LED_RED
Text Label 5725 2900 1    50   ~ 0
LED_GREEN
Text Label 4225 5425 2    50   ~ 0
LED_RED
Text Label 4225 5325 2    50   ~ 0
LED_GREEN
Wire Wire Line
	4225 5325 3775 5325
Wire Wire Line
	3775 5425 4225 5425
Wire Wire Line
	3775 6225 4075 6225
Wire Wire Line
	3775 6125 4075 6125
Text Label 4075 6125 2    50   ~ 0
RX0
Text Label 4075 6225 2    50   ~ 0
TX0
Wire Wire Line
	3775 4625 4075 4625
Wire Wire Line
	3775 4725 4075 4725
Wire Wire Line
	3775 4825 4075 4825
Text Label 4075 4625 2    50   ~ 0
~SS~
Text Label 4075 4725 2    50   ~ 0
MOSI
Text Label 4075 4825 2    50   ~ 0
MISO
Wire Wire Line
	3775 4925 4075 4925
Text Label 4075 4925 2    50   ~ 0
SCK
$Comp
L power:PWR_FLAG #FLG0101
U 1 1 5B58C2A1
P 10050 6125
F 0 "#FLG0101" H 10050 6200 50  0001 C CNN
F 1 "PWR_FLAG" H 10050 6300 50  0000 C CNN
F 2 "" H 10050 6125 50  0001 C CNN
F 3 "~" H 10050 6125 50  0001 C CNN
	1    10050 6125
	-1   0    0    1   
$EndComp
$Comp
L power:VCC #PWR0112
U 1 1 5B58C344
P 10050 6125
F 0 "#PWR0112" H 10050 5975 50  0001 C CNN
F 1 "VCC" H 10067 6300 50  0000 C CNN
F 2 "" H 10050 6125 50  0001 C CNN
F 3 "" H 10050 6125 50  0001 C CNN
	1    10050 6125
	1    0    0    -1  
$EndComp
$Comp
L power:GNDPWR #PWR0113
U 1 1 5B58C4B7
P 9675 6125
F 0 "#PWR0113" H 9675 5925 50  0001 C CNN
F 1 "GNDPWR" H 9679 5971 50  0000 C CNN
F 2 "" H 9675 6075 50  0001 C CNN
F 3 "" H 9675 6075 50  0001 C CNN
	1    9675 6125
	1    0    0    -1  
$EndComp
$Comp
L power:GND #PWR0114
U 1 1 5B58CC00
P 8950 6125
F 0 "#PWR0114" H 8950 5875 50  0001 C CNN
F 1 "GND" H 8954 5951 50  0000 C CNN
F 2 "" H 8950 6125 50  0001 C CNN
F 3 "" H 8950 6125 50  0001 C CNN
	1    8950 6125
	1    0    0    -1  
$EndComp
NoConn ~ 3775 6425
NoConn ~ 3775 6525
NoConn ~ 3775 6625
NoConn ~ 3775 6725
NoConn ~ 3775 6825
NoConn ~ 3775 5825
NoConn ~ 3775 5725
NoConn ~ 3775 5625
NoConn ~ 2575 4425
NoConn ~ 2575 4625
NoConn ~ 2575 4725
$Comp
L power:GND #PWR0115
U 1 1 5B5B59AA
P 3175 7125
F 0 "#PWR0115" H 3175 6875 50  0001 C CNN
F 1 "GND" H 3179 6951 50  0000 C CNN
F 2 "" H 3175 7125 50  0001 C CNN
F 3 "" H 3175 7125 50  0001 C CNN
	1    3175 7125
	1    0    0    -1  
$EndComp
NoConn ~ 7700 4300
Wire Wire Line
	3775 4425 4075 4425
Text Label 4075 4425 2    50   ~ 0
D-
$EndSCHEMATC
