M48
;DRILL file {KiCad 5.0.0-rc3+dfsg1-2} date Sun Jul 22 02:09:14 2018
;FORMAT={-:-/ absolute / inch / decimal}
FMAT,2
INCH,TZ
T1C0.0200
%
G90
G05
M72
T1
X2.458Y-1.98
X2.463Y-2.169
X2.573Y-1.967
X2.6793Y-1.9663
X2.75Y-2.547
X2.7746Y-1.8174
X2.79Y-2.499
X2.854Y-1.968
X3.5Y-1.8584
X3.55Y-2.4
T0
M30
